{
	"CyclesNumber" : 5,
	"TicketingTime" : 90,
	"SatisfactionInfectionTrigger" : 1.1,
	"DemandMeanBusiness" : 95,
	"DemandMeanLeisure" : 450,
	"ShapeBusiness" : 0.01,
	"ShapeLeisure" :  0.035,
	"intensityBusiness" : 5,
	"intensityLeisure" : 10,
	"DemandSigmaBusiness" : 9.75,
	"DemandSigmaLeisure" : 21,
	"airline1Capacity" : 120,
	"airline2Capacity" : 150,
	"numBusinessPassengers" : 40,
	"numLeisurePassengers" : 40
}